fulltext manual
…
Chapter 10 Table

The ft_table() function makes it easy to create a data.frame of the text of PDF, plain text, and XML files, together with DOIs/IDs for each article. It’s similar to the readtext::readtext() function, but is much more specific to just this package.

With the output of ft_table() you can go directly into a text-mining package like quanteda.

10.1 Usage

library(fulltext)

Use ft_table() to pull out text from all articles.

ft_table()

#> # A tibble: 192 x 4
#>    dois                       ids_norm                   text        paths
#>  * <chr>                      <chr>                      <chr>       <chr>
#>  1 10.1002/9783527696109.ch41 10_1002_9783527696109_ch41 "         … /Use…
#>  2 10.1002/chin.199038056     10_1002_chin_199038056     "ChemInfor… /Use…
#>  3 10.1002/cite.330221605     10_1002_cite_330221605     " Versamml… /Use…
#>  4 10.1002/dvg.22402          10_1002_dvg_22402          "C 2013 Wi… /Use…
#>  5 10.1002/jctb.5010090209    10_1002_jctb_5010090209    "         … /Use…
#>  6 10.1002/qua.560200801      10_1002_qua_560200801      "Internati… /Use…
#>  7 10.1002/risk.200590063     10_1002_risk_200590063     "         … /Use…
#>  8 10.1002/scin.5591692420    10_1002_scin_5591692420    "Books\n  … /Use…
#>  9 10.1006/bbrc.1994.2001     10_1006_bbrc_1994_2001     "http://ap… /Use…
#> 10 10.1007/11946465_42        10_1007_11946465_42        " Hoon Cho… /Use…
#> # ... with 182 more rows

You can pull out just text from XML files

ft_table(type = "xml")

#> # A tibble: 105 x 4
#>    dois                         ids_norm                     text    paths
#>  * <chr>                        <chr>                        <chr>   <chr>
#>  1 10.1006/bbrc.1994.2001       10_1006_bbrc_1994_2001       "http:… /Use…
#>  2 10.1016/0002-9378(65)90490-4 10_1016_0002_9378_65_90490_4 "http:… /Use…
#>  3 10.1016/0016-7185(95)00044-5 10_1016_0016_7185_95_00044_5 "http:… /Use…
#>  4 10.1016/0021-8928(59)90156-x 10_1016_0021_8928_59_90156_x "http:… /Use…
#>  5 10.1016/0022-4405(90)90022-y 10_1016_0022_4405_90_90022_y "http:… /Use…
#>  6 10.1016/0025-3227(64)90037-4 10_1016_0025_3227_64_90037_4 "http:… /Use…
#>  7 10.1016/0039-3681(86)90003-8 10_1016_0039_3681_86_90003_8 "http:… /Use…
#>  8 10.1016/0065-2571(81)90024-8 10_1016_0065_2571_81_90024_8 "http:… /Use…
#>  9 10.1016/0304-4068(89)90027-x 10_1016_0304_4068_89_90027_x http:/… /Use…
#> 10 10.1016/0921-4534(89)90593-5 10_1016_0921_4534_89_90593_5 "http:… /Use…
#> # ... with 95 more rows

You can pull out just text from PDF files

ft_table(type = "pdf")

#> # A tibble: 87 x 4
#>    dois                       ids_norm                   text        paths
#>  * <chr>                      <chr>                      <chr>       <chr>
#>  1 10.1002/9783527696109.ch41 10_1002_9783527696109_ch41 "         … /Use…
#>  2 10.1002/chin.199038056     10_1002_chin_199038056     "ChemInfor… /Use…
#>  3 10.1002/cite.330221605     10_1002_cite_330221605     " Versamml… /Use…
#>  4 10.1002/dvg.22402          10_1002_dvg_22402          "C 2013 Wi… /Use…
#>  5 10.1002/jctb.5010090209    10_1002_jctb_5010090209    "         … /Use…
#>  6 10.1002/qua.560200801      10_1002_qua_560200801      "Internati… /Use…
#>  7 10.1002/risk.200590063     10_1002_risk_200590063     "         … /Use…
#>  8 10.1002/scin.5591692420    10_1002_scin_5591692420    "Books\n  … /Use…
#>  9 10.1007/11946465_42        10_1007_11946465_42        " Hoon Cho… /Use…
#> 10 10.1007/7171_2009_3        10_1007_7171_2009_3        "eth Neals… /Use…
#> # ... with 77 more rows

You can pull out XML but not extract the text. So you’ll get XML strings that you can parse yourself with xpath/css selectors/etc.

ft_table(xml_extract_text = FALSE)

#> # A tibble: 192 x 4
#>    dois                       ids_norm                   text        paths
#>  * <chr>                      <chr>                      <chr>       <chr>
#>  1 10.1002/9783527696109.ch41 10_1002_9783527696109_ch41 "         … /Use…
#>  2 10.1002/chin.199038056     10_1002_chin_199038056     "ChemInfor… /Use…
#>  3 10.1002/cite.330221605     10_1002_cite_330221605     " Versamml… /Use…
#>  4 10.1002/dvg.22402          10_1002_dvg_22402          "C 2013 Wi… /Use…
#>  5 10.1002/jctb.5010090209    10_1002_jctb_5010090209    "         … /Use…
#>  6 10.1002/qua.560200801      10_1002_qua_560200801      "Internati… /Use…
#>  7 10.1002/risk.200590063     10_1002_risk_200590063     "         … /Use…
#>  8 10.1002/scin.5591692420    10_1002_scin_5591692420    "Books\n  … /Use…
#>  9 10.1006/bbrc.1994.2001     10_1006_bbrc_1994_2001     "<full-tex… /Use…
#> 10 10.1007/11946465_42        10_1007_11946465_42        " Hoon Cho… /Use…
#> # ... with 182 more rows
